{
    "annotations": {
      "list": [
        {
          "builtIn": 1,
          "datasource": {
            "type": "grafana",
            "uid": "-- Grafana --"
          },
          "enable": true,
          "hide": true,
          "iconColor": "rgba(0, 211, 255, 1)",
          "name": "Annotations & Alerts",
          "target": {
            "limit": 100,
            "matchAny": false,
            "tags": [],
            "type": "dashboard"
          },
          "type": "dashboard"
        }
      ]
    },
    "editable": true,
    "fiscalYearStartMonth": 0,
    "graphTooltip": 0,
    "id": 3,
    "links": [],
    "liveNow": false,
    "panels": [
      {
        "datasource": {
          "type": "prometheus",
          "uid": "jjQ1W3YVz"
        },
        "description": "",
        "fieldConfig": {
          "defaults": {
            "color": {
              "mode": "palette-classic"
            },
            "custom": {
              "axisCenteredZero": false,
              "axisColorMode": "text",
              "axisLabel": "",
              "axisPlacement": "auto",
              "barAlignment": 0,
              "drawStyle": "line",
              "fillOpacity": 0,
              "gradientMode": "none",
              "hideFrom": {
                "legend": false,
                "tooltip": false,
                "viz": false
              },
              "lineInterpolation": "linear",
              "lineWidth": 2,
              "pointSize": 5,
              "scaleDistribution": {
                "type": "linear"
              },
              "showPoints": "auto",
              "spanNulls": false,
              "stacking": {
                "group": "A",
                "mode": "none"
              },
              "thresholdsStyle": {
                "mode": "off"
              }
            },
            "mappings": [],
            "thresholds": {
              "mode": "absolute",
              "steps": [
                {
                  "color": "green",
                  "value": null
                },
                {
                  "color": "red",
                  "value": 80
                }
              ]
            }
          },
          "overrides": [
            {
              "__systemRef": "hideSeriesFrom",
              "matcher": {
                "id": "byNames",
                "options": {
                  "mode": "exclude",
                  "names": [
                    "monolith"
                  ],
                  "prefix": "All except:",
                  "readOnly": true
                }
              },
              "properties": [
                {
                  "id": "custom.hideFrom",
                  "value": {
                    "legend": false,
                    "tooltip": false,
                    "viz": true
                  }
                }
              ]
            }
          ]
        },
        "gridPos": {
          "h": 7,
          "w": 6,
          "x": 0,
          "y": 0
        },
        "id": 17,
        "options": {
          "legend": {
            "calcs": [],
            "displayMode": "list",
            "placement": "bottom",
            "showLegend": true
          },
          "tooltip": {
            "mode": "single",
            "sort": "none"
          }
        },
        "targets": [
          {
            "datasource": {
              "type": "prometheus",
              "uid": "jjQ1W3YVz"
            },
            "editorMode": "builder",
            "exemplar": false,
            "expr": "sum by(container) (container_cpu_system_seconds_total)",
            "format": "time_series",
            "hide": false,
            "instant": false,
            "legendFormat": "__auto",
            "range": true,
            "refId": "A"
          }
        ],
        "title": "Monolith CPU Seconds",
        "transformations": [
          {
            "id": "filterFieldsByName",
            "options": {
              "include": {
                "names": [
                  "Time",
                  "auth",
                  "auth-db",
                  "front",
                  "monolith",
                  "monolith-db",
                  "search-service",
                  "storage",
                  "storage-db",
                  "payment"
                ]
              }
            }
          }
        ],
        "type": "timeseries"
      },
      {
        "datasource": {
          "type": "prometheus",
          "uid": "jjQ1W3YVz"
        },
        "description": "",
        "fieldConfig": {
          "defaults": {
            "color": {
              "mode": "palette-classic"
            },
            "custom": {
              "axisCenteredZero": false,
              "axisColorMode": "text",
              "axisLabel": "",
              "axisPlacement": "auto",
              "barAlignment": 0,
              "drawStyle": "line",
              "fillOpacity": 0,
              "gradientMode": "none",
              "hideFrom": {
                "legend": false,
                "tooltip": false,
                "viz": false
              },
              "lineInterpolation": "linear",
              "lineWidth": 2,
              "pointSize": 5,
              "scaleDistribution": {
                "type": "linear"
              },
              "showPoints": "auto",
              "spanNulls": false,
              "stacking": {
                "group": "A",
                "mode": "none"
              },
              "thresholdsStyle": {
                "mode": "off"
              }
            },
            "mappings": [],
            "thresholds": {
              "mode": "absolute",
              "steps": [
                {
                  "color": "green",
                  "value": null
                },
                {
                  "color": "red",
                  "value": 80
                }
              ]
            }
          },
          "overrides": []
        },
        "gridPos": {
          "h": 7,
          "w": 6,
          "x": 6,
          "y": 0
        },
        "id": 18,
        "options": {
          "legend": {
            "calcs": [],
            "displayMode": "list",
            "placement": "bottom",
            "showLegend": true
          },
          "tooltip": {
            "mode": "single",
            "sort": "none"
          }
        },
        "targets": [
          {
            "datasource": {
              "type": "prometheus",
              "uid": "jjQ1W3YVz"
            },
            "editorMode": "builder",
            "exemplar": false,
            "expr": "sum by(container) (container_cpu_system_seconds_total)",
            "format": "time_series",
            "hide": false,
            "instant": false,
            "legendFormat": "__auto",
            "range": true,
            "refId": "B"
          }
        ],
        "title": "Container CPU Total Seconds",
        "transformations": [
          {
            "id": "filterFieldsByName",
            "options": {
              "include": {
                "names": [
                  "Time",
                  "auth",
                  "auth-db",
                  "front",
                  "payment",
                  "search-service",
                  "storage",
                  "storage-db"
                ]
              }
            }
          },
          {
            "id": "calculateField",
            "options": {
              "mode": "reduceRow",
              "reduce": {
                "include": [
                  "auth",
                  "auth-db",
                  "front",
                  "payment",
                  "search-service",
                  "storage",
                  "storage-db"
                ],
                "reducer": "sum"
              },
              "replaceFields": true
            }
          }
        ],
        "type": "timeseries"
      },
      {
        "datasource": {
          "type": "prometheus",
          "uid": "jjQ1W3YVz"
        },
        "fieldConfig": {
          "defaults": {
            "color": {
              "mode": "palette-classic"
            },
            "custom": {
              "axisCenteredZero": false,
              "axisColorMode": "text",
              "axisLabel": "",
              "axisPlacement": "auto",
              "barAlignment": 0,
              "drawStyle": "line",
              "fillOpacity": 0,
              "gradientMode": "none",
              "hideFrom": {
                "legend": false,
                "tooltip": false,
                "viz": false
              },
              "lineInterpolation": "linear",
              "lineWidth": 1,
              "pointSize": 5,
              "scaleDistribution": {
                "type": "linear"
              },
              "showPoints": "auto",
              "spanNulls": false,
              "stacking": {
                "group": "A",
                "mode": "none"
              },
              "thresholdsStyle": {
                "mode": "off"
              }
            },
            "mappings": [],
            "thresholds": {
              "mode": "absolute",
              "steps": [
                {
                  "color": "green",
                  "value": null
                },
                {
                  "color": "red",
                  "value": 80
                }
              ]
            }
          },
          "overrides": []
        },
        "gridPos": {
          "h": 7,
          "w": 6,
          "x": 12,
          "y": 0
        },
        "id": 6,
        "options": {
          "legend": {
            "calcs": [],
            "displayMode": "list",
            "placement": "bottom",
            "showLegend": true
          },
          "tooltip": {
            "mode": "single",
            "sort": "none"
          }
        },
        "targets": [
          {
            "datasource": {
              "type": "prometheus",
              "uid": "jjQ1W3YVz"
            },
            "editorMode": "builder",
            "expr": "sum by(namespace) (container_cpu_system_seconds_total)",
            "legendFormat": "__auto",
            "range": true,
            "refId": "A"
          }
        ],
        "title": "Container CPU Total",
        "type": "timeseries"
      },
      {
        "datasource": {
          "type": "prometheus",
          "uid": "jjQ1W3YVz"
        },
        "fieldConfig": {
          "defaults": {
            "color": {
              "mode": "palette-classic"
            },
            "custom": {
              "axisCenteredZero": false,
              "axisColorMode": "text",
              "axisLabel": "",
              "axisPlacement": "auto",
              "barAlignment": 0,
              "drawStyle": "line",
              "fillOpacity": 0,
              "gradientMode": "none",
              "hideFrom": {
                "legend": false,
                "tooltip": false,
                "viz": false
              },
              "lineInterpolation": "linear",
              "lineWidth": 1,
              "pointSize": 5,
              "scaleDistribution": {
                "type": "linear"
              },
              "showPoints": "auto",
              "spanNulls": false,
              "stacking": {
                "group": "A",
                "mode": "none"
              },
              "thresholdsStyle": {
                "mode": "off"
              }
            },
            "mappings": [],
            "thresholds": {
              "mode": "absolute",
              "steps": [
                {
                  "color": "green",
                  "value": null
                },
                {
                  "color": "red",
                  "value": 80
                }
              ]
            }
          },
          "overrides": []
        },
        "gridPos": {
          "h": 7,
          "w": 6,
          "x": 18,
          "y": 0
        },
        "id": 8,
        "options": {
          "legend": {
            "calcs": [],
            "displayMode": "list",
            "placement": "bottom",
            "showLegend": true
          },
          "tooltip": {
            "mode": "single",
            "sort": "none"
          }
        },
        "targets": [
          {
            "datasource": {
              "type": "prometheus",
              "uid": "jjQ1W3YVz"
            },
            "editorMode": "builder",
            "expr": "sum by(namespace) (container_memory_usage_bytes)",
            "legendFormat": "__auto",
            "range": true,
            "refId": "A"
          }
        ],
        "title": "Memory Usage",
        "type": "timeseries"
      },
      {
        "datasource": {
          "type": "prometheus",
          "uid": "jjQ1W3YVz"
        },
        "description": "",
        "fieldConfig": {
          "defaults": {
            "color": {
              "mode": "palette-classic"
            },
            "custom": {
              "axisCenteredZero": false,
              "axisColorMode": "text",
              "axisLabel": "",
              "axisPlacement": "auto",
              "barAlignment": 0,
              "drawStyle": "line",
              "fillOpacity": 0,
              "gradientMode": "none",
              "hideFrom": {
                "legend": false,
                "tooltip": false,
                "viz": false
              },
              "lineInterpolation": "linear",
              "lineWidth": 2,
              "pointSize": 5,
              "scaleDistribution": {
                "type": "linear"
              },
              "showPoints": "auto",
              "spanNulls": false,
              "stacking": {
                "group": "A",
                "mode": "none"
              },
              "thresholdsStyle": {
                "mode": "off"
              }
            },
            "mappings": [],
            "thresholds": {
              "mode": "absolute",
              "steps": [
                {
                  "color": "green",
                  "value": null
                },
                {
                  "color": "red",
                  "value": 80
                }
              ]
            }
          },
          "overrides": []
        },
        "gridPos": {
          "h": 8,
          "w": 12,
          "x": 0,
          "y": 7
        },
        "id": 4,
        "options": {
          "legend": {
            "calcs": [],
            "displayMode": "list",
            "placement": "bottom",
            "showLegend": true
          },
          "tooltip": {
            "mode": "single",
            "sort": "none"
          }
        },
        "targets": [
          {
            "datasource": {
              "type": "prometheus",
              "uid": "jjQ1W3YVz"
            },
            "editorMode": "builder",
            "exemplar": false,
            "expr": "sum by(container) (container_cpu_system_seconds_total)",
            "format": "time_series",
            "hide": false,
            "instant": false,
            "legendFormat": "__auto",
            "range": true,
            "refId": "B"
          }
        ],
        "title": "Container CPU Total Seconds",
        "transformations": [
          {
            "id": "filterFieldsByName",
            "options": {
              "include": {
                "names": [
                  "Time",
                  "auth",
                  "auth-db",
                  "front",
                  "monolith-db",
                  "payment",
                  "search-service",
                  "storage",
                  "storage-db"
                ]
              }
            }
          }
        ],
        "type": "timeseries"
      },
      {
        "datasource": {
          "type": "prometheus",
          "uid": "jjQ1W3YVz"
        },
        "fieldConfig": {
          "defaults": {
            "color": {
              "mode": "palette-classic"
            },
            "custom": {
              "axisCenteredZero": false,
              "axisColorMode": "text",
              "axisLabel": "",
              "axisPlacement": "auto",
              "barAlignment": 0,
              "drawStyle": "line",
              "fillOpacity": 0,
              "gradientMode": "none",
              "hideFrom": {
                "legend": false,
                "tooltip": false,
                "viz": false
              },
              "lineInterpolation": "linear",
              "lineWidth": 1,
              "pointSize": 5,
              "scaleDistribution": {
                "type": "linear"
              },
              "showPoints": "auto",
              "spanNulls": false,
              "stacking": {
                "group": "A",
                "mode": "none"
              },
              "thresholdsStyle": {
                "mode": "off"
              }
            },
            "mappings": [],
            "thresholds": {
              "mode": "absolute",
              "steps": [
                {
                  "color": "green",
                  "value": null
                },
                {
                  "color": "red",
                  "value": 80
                }
              ]
            }
          },
          "overrides": []
        },
        "gridPos": {
          "h": 8,
          "w": 12,
          "x": 12,
          "y": 7
        },
        "id": 12,
        "options": {
          "legend": {
            "calcs": [],
            "displayMode": "list",
            "placement": "bottom",
            "showLegend": true
          },
          "tooltip": {
            "mode": "single",
            "sort": "none"
          }
        },
        "targets": [
          {
            "datasource": {
              "type": "prometheus",
              "uid": "jjQ1W3YVz"
            },
            "editorMode": "code",
            "expr": "monolith_successful_requests_total / (monolith_successful_requests_total+monolith_error_requests_total)",
            "legendFormat": "__auto",
            "range": true,
            "refId": "A"
          },
          {
            "datasource": {
              "type": "prometheus",
              "uid": "jjQ1W3YVz"
            },
            "editorMode": "code",
            "expr": "(sum(front_successful_requests_total) + sum(storage_successful_requests_total) + sum(payment_successful_requests_total) + sum(search_successful_requests_total) + sum(auth_successful_requests_total)) / ((sum(front_error_requests_total) + sum(storage_error_requests_total) + sum(payment_error_requests_total) + sum(search_error_requests_total) + sum(auth_error_requests_total))\n + (sum(front_successful_requests_total) + sum(storage_successful_requests_total) + sum(payment_successful_requests_total) + sum(search_successful_requests_total) + sum(auth_successful_requests_total)))",
            "hide": false,
            "legendFormat": "__auto",
            "range": true,
            "refId": "B"
          }
        ],
        "title": "Successful request Percentage",
        "type": "timeseries"
      },
      {
        "datasource": {
          "type": "prometheus",
          "uid": "jjQ1W3YVz"
        },
        "fieldConfig": {
          "defaults": {
            "color": {
              "mode": "palette-classic"
            },
            "custom": {
              "axisCenteredZero": false,
              "axisColorMode": "text",
              "axisLabel": "",
              "axisPlacement": "auto",
              "barAlignment": 0,
              "drawStyle": "line",
              "fillOpacity": 0,
              "gradientMode": "none",
              "hideFrom": {
                "legend": false,
                "tooltip": false,
                "viz": false
              },
              "lineInterpolation": "linear",
              "lineWidth": 1,
              "pointSize": 5,
              "scaleDistribution": {
                "type": "linear"
              },
              "showPoints": "auto",
              "spanNulls": false,
              "stacking": {
                "group": "A",
                "mode": "none"
              },
              "thresholdsStyle": {
                "mode": "off"
              }
            },
            "mappings": [],
            "thresholds": {
              "mode": "absolute",
              "steps": [
                {
                  "color": "green",
                  "value": null
                },
                {
                  "color": "red",
                  "value": 80
                }
              ]
            }
          },
          "overrides": []
        },
        "gridPos": {
          "h": 8,
          "w": 12,
          "x": 0,
          "y": 15
        },
        "id": 14,
        "options": {
          "legend": {
            "calcs": [],
            "displayMode": "list",
            "placement": "bottom",
            "showLegend": true
          },
          "tooltip": {
            "mode": "single",
            "sort": "none"
          }
        },
        "targets": [
          {
            "datasource": {
              "type": "prometheus",
              "uid": "jjQ1W3YVz"
            },
            "editorMode": "code",
            "expr": "sum(front_error_requests_total) + sum(search_error_requests_total) + sum(payment_error_requests_total) + sum(storage_error_requests_total)",
            "legendFormat": "__auto",
            "range": true,
            "refId": "A"
          },
          {
            "datasource": {
              "type": "prometheus",
              "uid": "jjQ1W3YVz"
            },
            "editorMode": "builder",
            "expr": "monolith_error_requests_total",
            "hide": false,
            "legendFormat": "__auto",
            "range": true,
            "refId": "B"
          }
        ],
        "title": "Error Requests Total",
        "type": "timeseries"
      },
      {
        "datasource": {
          "type": "prometheus",
          "uid": "jjQ1W3YVz"
        },
        "fieldConfig": {
          "defaults": {
            "color": {
              "mode": "palette-classic"
            },
            "custom": {
              "axisCenteredZero": false,
              "axisColorMode": "text",
              "axisLabel": "",
              "axisPlacement": "auto",
              "barAlignment": 0,
              "drawStyle": "line",
              "fillOpacity": 0,
              "gradientMode": "none",
              "hideFrom": {
                "legend": false,
                "tooltip": false,
                "viz": false
              },
              "lineInterpolation": "linear",
              "lineWidth": 1,
              "pointSize": 5,
              "scaleDistribution": {
                "type": "linear"
              },
              "showPoints": "auto",
              "spanNulls": false,
              "stacking": {
                "group": "A",
                "mode": "none"
              },
              "thresholdsStyle": {
                "mode": "off"
              }
            },
            "mappings": [],
            "thresholds": {
              "mode": "absolute",
              "steps": [
                {
                  "color": "green",
                  "value": null
                },
                {
                  "color": "red",
                  "value": 80
                }
              ]
            }
          },
          "overrides": []
        },
        "gridPos": {
          "h": 8,
          "w": 12,
          "x": 12,
          "y": 15
        },
        "id": 16,
        "options": {
          "legend": {
            "calcs": [],
            "displayMode": "list",
            "placement": "bottom",
            "showLegend": true
          },
          "tooltip": {
            "mode": "single",
            "sort": "none"
          }
        },
        "targets": [
          {
            "datasource": {
              "type": "prometheus",
              "uid": "jjQ1W3YVz"
            },
            "editorMode": "code",
            "expr": "monolith_request_duration_seconds_sum * 1000",
            "legendFormat": "__auto",
            "range": true,
            "refId": "A"
          },
          {
            "datasource": {
              "type": "prometheus",
              "uid": "jjQ1W3YVz"
            },
            "editorMode": "code",
            "expr": "sum(front_request_duration_seconds_sum) + sum(auth_request_duration_seconds_sum) + sum(python_request_duration_seconds_sum) + sum(storage_operation_duration_seconds_sum) + sum(payment_request_duration_seconds_sum)",
            "hide": false,
            "legendFormat": "__auto",
            "range": true,
            "refId": "B"
          }
        ],
        "title": "Duration Total",
        "type": "timeseries"
      }
    ],
    "refresh": false,
    "schemaVersion": 37,
    "style": "dark",
    "tags": [],
    "templating": {
      "list": []
    },
    "time": {
      "from": "now-15m",
      "to": "now"
    },
    "timepicker": {},
    "timezone": "",
    "title": "FYP Copy",
    "uid": "Drygu8YVk",
    "version": 7,
    "weekStart": ""
  }